task-2
…
First ambient artwork

# using ambient we first need to set the x and y coords
x_coords <- seq(from = 0, to = 1, length.out = 800)
y_coords <- seq(from = 0, to = 1, length.out = 800)

# the "canvas" is what we are going to paint on and thus we set the x and y cords
# using the function long_grid we can use it to easily convert them to arrays, matrices and raster obejcts that respect the implied spatial grid 
canvas <- long_grid(x = x_coords, y = y_coords) 
canvas

# A tibble: 640,000 × 2
       x       y
   <dbl>   <dbl>
 1     0 0      
 2     0 0.00125
 3     0 0.00250
 4     0 0.00375
 5     0 0.00501
 6     0 0.00626
 7     0 0.00751
 8     0 0.00876
 9     0 0.0100 
10     0 0.0113 
# ℹ 639,990 more rows
#gen_perline(), generates generate random "wavy" patterns and can be thought of the idea as our brush 
gen_perlin(x = 1:5, y = 1, frequency = .001, seed = 1)

[1] -0.001000010 -0.001000010 -0.001000009 -0.001000009 -0.001000007

gen_perlin(x = 1:5, y = 1, frequency = .5, seed = 1)

[1] -0.375  0.000  0.000 -0.250  0.000

# adding a new column using the function mutate()
canvas <- canvas |> 
  mutate(paint = gen_perlin(x, y, frequency = 10, seed = 1234))
canvas

# A tibble: 640,000 × 3
       x       y  paint
   <dbl>   <dbl>  <dbl>
 1     0 0       0     
 2     0 0.00125 0.0125
 3     0 0.00250 0.0249
 4     0 0.00375 0.0370
 5     0 0.00501 0.0489
 6     0 0.00626 0.0604
 7     0 0.00751 0.0713
 8     0 0.00876 0.0817
 9     0 0.0100  0.0915
10     0 0.0113  0.101 
# ℹ 639,990 more rows
…
# creating the data frame for the plot below
curl <- curl_noise(
  generator = gen_simplex,
  seed = 1,
  frequency = .1,
  x = smol_grid$x, 
  y = smol_grid$y
)

as_tibble(curl)

# A tibble: 400 × 2
         x        y
     <dbl>    <dbl>
 1  0.312   0.0597 
 2  0.124   0.0560 
 3 -0.0121  0.00537
 4 -0.0647 -0.0316 
 5 -0.0808 -0.0412 
 6 -0.121  -0.0349 
 7 -0.216  -0.0351 
 8 -0.214  -0.0817 
 9 -0.0387 -0.196  
10  0.138  -0.311  
# ℹ 390 more rows
…
coords <- seq(0, 1, length.out = 50)
time_1 <- long_grid(x = coords, y = coords) %>% 
  mutate(id = row_number(), time = 1)
time_1

# A tibble: 2,500 × 4
       x      y    id  time
   <dbl>  <dbl> <int> <dbl>
 1     0 0          1     1
 2     0 0.0204     2     1
 3     0 0.0408     3     1
 4     0 0.0612     4     1
 5     0 0.0816     5     1
 6     0 0.102      6     1
 7     0 0.122      7     1
 8     0 0.143      8     1
 9     0 0.163      9     1
10     0 0.184     10     1
# ℹ 2,490 more rows
…
time_3 <- time_2 |> 
  update_curl(
    generator = gen_simplex,
    frequency = 10, 
    seed = 1234
  )

time_3

# A tibble: 2,500 × 4
          x      y    id  time
      <dbl>  <dbl> <int> <dbl>
 1 -0.0264  0.0309     1     3
 2  0.0226  0.0502     2     3
 3  0.0417  0.0712     3     3
 4  0.00234 0.0843     4     3
 5 -0.0372  0.0573     5     3
 6 -0.0253  0.0786     6     3
 7 -0.0154  0.117      7     3
 8 -0.00378 0.136      8     3
 9  0.00913 0.159      9     3
10 -0.0199  0.201     10     3
# ℹ 2,490 more rows
…
